{"code":0,"data":{"resultlist":[{"bankName":"工商银行","commissionFeeRate":"11.25","creditStatus":0,"creditWay":0,"isDel":0,"loanTasks":[],"orderNo":"nfdb2016102820480790","stageMoney":77000.0000,"submitDateStr":"","userId":222222552,"userType":2},{"bankName":"工商银行","commissionFeeRate":"11.25","creditStatus":0,"creditWay":0,"isDel":0,"loanTasks":[],"orderNo":"nfdb2016102820480790","stageMoney":77000.0000,"submitDateStr":"","userId":222222548,"userType":1},{"bankName":"工商银行","commissionFeeRate":"12.0000","creditStatus":0,"creditWay":0,"idCard":"330999939393939393","isDel":0,"loanTasks":[],"orderNo":"nfdb2016102820480799","stageMoney":374421.6000,"submitDateStr":"","userId":990002,"userName":"李四","userType":1},{"bankName":"工商银行","commissionFeeRate":"11.25","creditStatus":0,"creditWay":0,"idCard":"330999939393939305","isDel":0,"loanTasks":[],"orderNo":"nfdb2016102820480790","stageMoney":77000.0000,"submitDateStr":"","userId":100003,"userName":"李四22","userType":1},{"bankName":"工商银行","commissionFeeRate":"11.25","creditStatus":0,"creditWay":0,"idCard":"330621197410036801","isDel":0,"loanTasks":[],"orderNo":"nfdb2016102820480790","stageMoney":77000.0000,"submitDateStr":"","userId":100000,"userName":"张三","userType":0},{"bankName":"工商银行","commissionFeeRate":"11.25","creditStatus":0,"creditWay":0,"isDel":0,"loanTasks":[],"orderNo":"nfdb2016102820480790","stageMoney":77000.0000,"submitDateStr":"","userId":222222559,"userType":2},{"bankName":"工商银行","commissionFeeRate":"11.25","creditStatus":0,"creditWay":0,"isDel":0,"loanTasks":[],"orderNo":"nfdb2016102820480790","stageMoney":77000.0000,"submitDateStr":"","userId":222222556,"userType":1},{"bankName":"工商银行","commissionFeeRate":"11.25","creditStatus":0,"creditWay":0,"isDel":0,"loanTasks":[],"orderNo":"nfdb2016102820480790","stageMoney":77000.0000,"submitDateStr":"","userId":222222553,"userType":1},{"bankName":"工商银行","commissionFeeRate":"11.25","creditStatus":0,"creditWay":0,"isDel":0,"loanTasks":[],"orderNo":"nfdb2016102820480790","stageMoney":77000.0000,"submitDateStr":"","userId":222222550,"userType":1},{"bankName":"工商银行","commissionFeeRate":"12.0000","creditStatus":0,"creditWay":0,"idCard":"330999939393939394","isDel":0,"loanTasks":[],"orderNo":"nfdb2016102820480799","stageMoney":374421.6000,"submitDateStr":"","userId":990003,"userName":"王五","userType":2},{"bankName":"工商银行","commissionFeeRate":"11.25","creditStatus":0,"creditWay":0,"isDel":0,"loanTasks":[],"orderNo":"nfdb2016102820480790","stageMoney":77000.0000,"submitDateStr":"","userId":222222352,"userName":"张三","userType":0},{"bankName":"工商银行","commissionFeeRate":"11.25","creditStatus":0,"creditWay":0,"idCard":"330999939393939303","isDel":0,"loanTasks":[],"orderNo":"nfdb2016102820480790","stageMoney":77000.0000,"submitDateStr":"","userId":100001,"userName":"李四","userType":1},{"bankName":"工商银行","commissionFeeRate":"11.25","creditStatus":0,"creditWay":0,"isDel":0,"loanTasks":[],"orderNo":"nfdb2016102820480790","stageMoney":77000.0000,"submitDateStr":"","userId":222222560,"userType":1},{"bankName":"工商银行","commissionFeeRate":"11.25","creditStatus":0,"creditWay":0,"isDel":0,"loanTasks":[],"orderNo":"nfdb2016102820480790","stageMoney":77000.0000,"submitDateStr":"","userId":222222557,"userType":1},{"bankName":"工商银行","commissionFeeRate":"11.25","creditStatus":0,"creditWay":0,"isDel":0,"loanTasks":[],"orderNo":"nfdb2016102820480790","stageMoney":77000.0000,"submitDateStr":"","userId":222222554,"userType":1},{"bankName":"工商银行","commissionFeeRate":"11.25","creditStatus":0,"creditWay":0,"isDel":0,"loanTasks":[],"orderNo":"nfdb2016102820480790","stageMoney":77000.0000,"submitDateStr":"","userId":222222551,"userType":1},{"bankName":"工商银行","commissionFeeRate":"11.25","creditStatus":0,"creditWay":0,"isDel":0,"loanTasks":[],"orderNo":"nfdb2016102820480790","stageMoney":77000.0000,"submitDateStr":"","userId":222222528,"userType":2},{"bankName":"工商银行","commissionFeeRate":"11.25","creditStatus":0,"creditWay":0,"idCard":"330999939393939304","isDel":0,"loanTasks":[],"orderNo":"nfdb2016102820480790","stageMoney":77000.0000,"submitDateStr":"","userId":100002,"userName":"王五","userType":2},{"bankName":"工商银行","commissionFeeRate":"12.0000","creditStatus":0,"creditWay":0,"idCard":"342432432432432","isDel":0,"loanTasks":[],"orderNo":"nfdb2016102820480799","stageMoney":374421.6000,"submitDateStr":"","userId":990001,"userName":"sadfa","userType":1},{"bankName":"工商银行","commissionFeeRate":"11.25","creditStatus":0,"creditWay":0,"isDel":0,"loanTasks":[],"orderNo":"nfdb2016102820480790","stageMoney":77000.0000,"submitDateStr":"","userId":222222558,"userType":1}]},"msg":"success","page":{"pageNum":1,"pageSize":20,"pages":2,"startRow":0,"total":21}}