{"code":0,"data":{"resultlist":[{"accountNumber":"34","bankAddress":"文三路216号22","bankCode":"1122","bankId":1,"bankName":"杭州银行22","brand":"","businessModel":"12","demandBankAccountList":[{"accountName":"测试账号11","accountNumber":"11111111111","createDate":1487846107000,"createUser":111,"demandBankId":1,"id":1,"isDel":0,"status":0,"updateDate":1487846113000,"updateUser":111},{"accountName":"测试账号12","accountNumber":"11111111112","createDate":1487846107000,"createUser":111,"demandBankId":1,"id":2,"isDel":0,"status":0,"updateDate":1487846113000,"updateUser":111},{"accountName":"测试账号13","accountNumber":"11111111113","createDate":1487846107000,"createUser":111,"demandBankId":1,"id":3,"isDel":0,"status":0,"updateDate":1487846107000,"updateUser":111}],"demandBankRateList":[{"id12":1,"id18":2,"id24":3,"id30":4,"id36":5,"id48":6,"id60":7,"interestRate12":1.0000,"interestRate18":2.0000,"interestRate24":3.0000,"interestRate30":4.0000,"interestRate36":5.0000,"interestRate48":6.0000,"interestRate60":7.0000,"isSecond":0,"provinceId":330000,"provinceName":"浙江省"},{"id12":8,"id18":9,"id24":10,"id30":11,"id36":12,"id48":13,"id60":14,"interestRate12":8.0000,"interestRate18":9.0000,"interestRate24":9.5000,"interestRate30":9.8000,"interestRate36":9.8000,"interestRate48":10.0000,"interestRate60":10.5000,"isSecond":1,"provinceId":330000}],"id":1,"isDel":0,"organId":99,"subsidiary":"t1"},{"accountName":"中行湖州市分行","accountNumber":"351966674001","bankId":942,"bankName":"中行湖州城中支行","businessModel":"0","demandBankAccountList":[],"demandBankRateList":[],"id":96,"isDel":0,"organId":99,"subsidiary":"湖州"},{"accountName":"0","accountNumber":"0","bankId":952,"bankName":"瑞丰银行","businessModel":"0","demandBankAccountList":[],"demandBankRateList":[],"id":97,"isDel":0,"organId":99,"subsidiary":"绍兴"},{"accountName":"浙江知本担保有限公司","accountNumber":"暂无","bankId":962,"bankName":"杭州联合银行","businessModel":"传统模式","demandBankAccountList":[],"demandBankRateList":[],"id":98,"isDel":0,"organId":99,"subsidiary":"江苏分公司"},{"accountName":"0","accountNumber":"0","bankId":972,"bankName":"温州中行","businessModel":"贴息","demandBankAccountList":[],"demandBankRateList":[],"id":99,"isDel":0,"organId":99,"subsidiary":"温州"},{"accountName":"0","accountNumber":"0","bankId":982,"bankName":"建行延安支行","businessModel":"0","demandBankAccountList":[],"demandBankRateList":[],"id":100,"isDel":0,"organId":99,"subsidiary":"杭州"},{"accountName":"0","accountNumber":"0","bankId":992,"bankName":"工行丽水缙云支行","businessModel":"资产管理","demandBankAccountList":[],"demandBankRateList":[],"id":101,"isDel":0,"organId":99,"subsidiary":"0"},{"accountName":"0","accountNumber":"0","bankId":1002,"bankName":"工行丽水龙泉支行","businessModel":"资产管理","demandBankAccountList":[],"demandBankRateList":[],"id":102,"isDel":0,"organId":99,"subsidiary":"丽水"},{"accountName":"0","accountNumber":"0","bankId":1012,"bankName":"温州工行（市中支行）","businessModel":"0","demandBankAccountList":[],"demandBankRateList":[],"id":103,"isDel":0,"organId":99,"subsidiary":"温州"},{"accountName":"景德镇工行","accountNumber":"622819008790123","bankId":1022,"bankName":"工行","businessModel":"自拓","demandBankAccountList":[],"demandBankRateList":[],"id":104,"isDel":0,"organId":99,"subsidiary":"工商银行景德镇分行"},{"accountName":"礼花","accountNumber":"19641234","bankId":1032,"bankName":"西南银行","businessModel":"标准","demandBankAccountList":[],"demandBankRateList":[],"id":105,"isDel":0,"organId":99,"subsidiary":"西南银行杭州分公司"},{"accountName":"0","accountNumber":"0","bankId":1042,"bankName":"广州东城工行","businessModel":"0","demandBankAccountList":[],"demandBankRateList":[],"id":106,"isDel":0,"organId":99,"subsidiary":"广东"},{"accountName":"0","accountNumber":"0","bankId":1052,"bankName":"工行广东佛山分行","businessModel":"0","demandBankAccountList":[],"demandBankRateList":[],"id":107,"isDel":0,"organId":99,"subsidiary":"广东"},{"accountName":"0","accountNumber":"0","bankId":1062,"bankName":"工行深圳梅林支行","businessModel":"0","demandBankAccountList":[],"demandBankRateList":[],"id":108,"isDel":0,"organId":99,"subsidiary":"广东"},{"accountName":"浙江集和汽车贸易有限公司","accountNumber":"1205220019001133063","bankId":1072,"bankName":"中国工商银行股份有限公司湖州经济开发区支行","businessModel":"传统模式","demandBankAccountList":[],"demandBankRateList":[],"id":109,"isDel":0,"organId":99,"subsidiary":"山东营销中心"},{"accountName":"浙江集和汽车贸易有限公司","accountNumber":"1202022141000010076","bankId":1082,"bankName":"中国工商银行股份有限公司杭州朝晖支行","businessModel":"资产管理","demandBankAccountList":[],"demandBankRateList":[],"id":110,"isDel":0,"organId":99,"subsidiary":"金华"},{"accountName":"0","accountNumber":"0","bankId":1092,"bankName":"工行武汉硚口支行","businessModel":"0","demandBankAccountList":[],"demandBankRateList":[],"id":111,"isDel":0,"organId":99,"subsidiary":"湖北"},{"accountName":"浙江省杭州","accountNumber":"7271749729147927","bankId":1102,"bankName":"中国工商银行延中支行","businessModel":"标准","demandBankAccountList":[],"demandBankRateList":[],"id":112,"isDel":0,"organId":99,"subsidiary":"总公司"},{"accountName":"1","accountNumber":"1","bankId":1112,"bankName":"中国银行武林支行","businessModel":"资产管理","demandBankAccountList":[],"demandBankRateList":[],"id":113,"isDel":0,"organId":99,"subsidiary":"总公司"},{"accountName":"xx","accountNumber":"xxx","bankId":1122,"bankName":"xxx","businessModel":"xx","demandBankAccountList":[],"demandBankRateList":[],"id":114,"isDel":0,"organId":99,"subsidiary":"xxxx"}]},"msg":"success","page":{"pageNum":1,"pageSize":20,"pages":2,"startRow":0,"total":36}}