{"code":0,"data":{"resultlist":[{"commissionFeeRate":"11.25","mobile":"13819176666","orderNo":"nfdb2016102820480890","repayPeriod":36,"stageMoney":0.0000},{"commissionFeeRate":"11.25","mobile":"13399998889","orderNo":"nfdb2016102820480890","repayPeriod":36,"stageMoney":0.0000},{"commissionFeeRate":"11.25","mobile":"13334333309","orderNo":"nfdb2016102820480890","repayPeriod":36,"stageMoney":0.0000},{"commissionFeeRate":"12.0000","mobile":"13334333331","orderNo":"nfdb2016102820480799","repayPeriod":36,"stageMoney":374421.6000},{"commissionFeeRate":"12.0000","mobile":"13334333332","orderNo":"nfdb2016102820480799","repayPeriod":36,"stageMoney":374421.6000},{"commissionFeeRate":"12.0000","mobile":"13334333333","orderNo":"nfdb2016102820480799","repayPeriod":36,"stageMoney":374421.6000},{"commissionFeeRate":"6.0000","mobile":"18893983989","orderNo":"nfdb2016102000400458","repayPeriod":48,"stageMoney":27560.0000},{"commissionFeeRate":"6.0000","orderNo":"nfdb2016102000400458","repayPeriod":48,"stageMoney":27560.0000},{"commissionFeeRate":"6.0000","mobile":"13524289733","orderNo":"nfdb2016102000400458","repayPeriod":48,"stageMoney":27560.0000},{"commissionFeeRate":"8.5500","mobile":"18796967769","orderNo":"nfdb2016102008214608","repayPeriod":36,"stageMoney":64478.7000},{"commissionFeeRate":"8.5","mobile":"13906709125","orderNo":"nfdb2016102009320371","repayPeriod":36,"stageMoney":223835.5000},{"commissionFeeRate":"13.5000","mobile":"18057393985","orderNo":"nyyh2016102011133692","repayPeriod":36,"stageMoney":51075.0000},{"commissionFeeRate":"11.5","mobile":"15988502366","orderNo":"nfdb2016102010150664","repayPeriod":36,"stageMoney":124700.0000},{"commissionFeeRate":"11.5","mobile":"13868963155","orderNo":"nfdb2016102010375685","repayPeriod":36,"stageMoney":112875.0000},{"commissionFeeRate":"4","mobile":"13588843434","orderNo":"nfdb2016102010204710","repayPeriod":12,"stageMoney":41600.0000},{"commissionFeeRate":"9.4900","mobile":"13609009204","orderNo":"nfdb2016102010301114","repayPeriod":36,"stageMoney":79380.2500},{"commissionFeeRate":"11.5000","mobile":"13521219444","orderNo":"nfdb2016102010475666","repayPeriod":36,"stageMoney":811943.0000},{"commissionFeeRate":"12.0000","mobile":"18957926386","orderNo":"nfdb2016102009283722","repayPeriod":36,"stageMoney":187738.0000},{"commissionFeeRate":"13.0000","mobile":"18305089570","orderNo":"nfdb2016102012181674","repayPeriod":36,"stageMoney":68478.0000},{"commissionFeeRate":"18.0000","mobile":"13607594248","orderNo":"nfdb2016102011482372","repayPeriod":36,"stageMoney":83308.0000}]},"msg":"success","page":{"pageNum":1,"pageSize":20,"pages":41,"startRow":0,"total":810}}