{
    "code":0,
    "data":[
        {
            "id":"001",
            "userName":"谢庆健",
            "orderId":"23562346243545",
        	"bankName":"杭州联合银行",
            "mechanism":"担保机构A",
            "stageMoney":"100万",
            "office":"杭州市公安局车管所",
            "dot":"经办网点A",
            "engineNum":"235235235",
            "time":"2017-03-21",
            "totalMoney":"300万",
            "giveMoneyTime":"2017-03-10",
            "createDate":"2017-03-01"
        },
        {
            "id":"002",
            "userName":"谢庆健2",
            "orderId":"23562346243545",
        	"bankName":"杭州联合银行",
            "mechanism":"担保机构A",
            "stageMoney":"100万",
            "office":"杭州市公安局车管所",
            "dot":"经办网点A",
            "engineNum":"235235235",
            "time":"2017-03-21",
            "totalMoney":"300万",
            "giveMoneyTime":"2017-03-10",
            "createDate":"2017-03-02"
        }
    ],
	"msg": "success",
    "page":{
        "pageNum":1,
        "pageSize":2,
        "pages":3,
        "startRow":0,
        "total":5
    }
}