{
	"code": 0,
	"page":{
        "pageNum":1,
        "pageSize":5,
        "pages":12,
        "startRow":0,
        "total":7
    },
	"data": [
		{
			"orderNo": "98765432123456789",
			"applyTime": "2016-10-11",
			"useTime": "2016-10-11",
			"user": "张三",
			"idc": "330382198302030023",
			"paidMoney": "120000",
			"payee": "广州俊佳智领汽车销售服务有限公司"
		},
		{
			"orderNo": "98765432123456789",
			"applyTime": "2016-10-11",
			"useTime": "2016-10-11",
			"user": "张三",
			"idc": "330382198302030023",
			"paidMoney": "120000",
			"payee": "广州俊佳智领汽车销售服务有限公司"
		},{
			"orderNo": "98765432123456789",
			"applyTime": "2016-10-11",
			"useTime": "2016-10-11",
			"user": "张三",
			"idc": "330382198302030023",
			"paidMoney": "120000",
			"payee": "广州俊佳智领汽车销售服务有限公司"
		},{
			"orderNo": "98765432123456789",
			"applyTime": "2016-10-11",
			"useTime": "2016-10-11",
			"user": "张三",
			"idc": "330382198302030023",
			"paidMoney": "120000",
			"payee": "广州俊佳智领汽车销售服务有限公司"
		},{
			"orderNo": "98765432123456789",
			"applyTime": "2016-10-11",
			"useTime": "2016-10-11",
			"user": "张三",
			"idc": "330382198302030023",
			"paidMoney": "120000",
			"payee": "广州俊佳智领汽车销售服务有限公司"
		}
	]
}