{
	"code": 0,
	"page":{
        "pageNum":1,
        "pageSize":5,
        "pages":12,
        "startRow":0,
        "total":7
    },
	"data": [
		{
			"totalMoney": 40000.00,
			"result" : [
				{
					"queryTime": "2016-10-11",
					"bank": "中国工商银行",
					"bankc": "123948572236987083309",
					"depositBalance": "10000.00"
				},
				{
					"queryTime": "2016-10-11",
					"bank": "中国农业银行",
					"bankc": "622848256585769870809",
					"depositBalance": "20000.00"
				},
				{
					"queryTime": "2016-10-11",
					"bank": "中国建设银行",
					"bankc": "932323333485769870809",
					"depositBalance": "10000.00"
				}
			]
			
		}
	]
}