{
	"code": 0,
	"page":{
        "pageNum":1,
        "pageSize":5,
        "pages":12,
        "startRow":0,
        "total":7
    },
	"data": [
		{
            "date": "2016-10-11",
            "orderNo": "hqdb2016040815101772",
            "carName": "大众C4L-2016时尚款大众C4L-2016时",
            "user": "张三",
            "idc": "330382198302030023",
            "phone": "13002601637",
            "installment": "1000",
            "periods": "12",
            "downpayment": "30%",
            "status": [
                "征信材料待完善",
                "征信结果待录入",
                "垫资材料待上传",
                "提车待审核",
                "待审核"
            ]
        },
        {
            "date": "2016-10-11",
            "orderNo": "hqdb2016040815101772",
            "carName": "大众C4L-2016时尚款大众C4L-2016时",
            "user": "张三",
            "idc": "330382198302030023",
            "phone": "13002601637",
            "installment": "1000",
            "periods": "12",
            "downpayment": "30%",
            "status": [
                "征信材料待完善",
                "征信结果待录入",
                "垫资材料待上传",
                "提车待审核",
                "待审核"
            ]
        },
        {
            "date": "2016-10-11",
            "orderNo": "hqdb2016040815101772",
            "carName": "大众C4L-2016时尚款大众C4L-2016时",
            "user": "张三",
            "idc": "330382198302030023",
            "phone": "13002601637",
            "installment": "1000",
            "periods": "12",
            "downpayment": "30%",
            "status": [
                "征信材料待完善",
                "征信结果待录入",
                "垫资材料待上传",
                "提车待审核",
                "待审核"
            ]
        },
        {
            "date": "2016-10-11",
            "orderNo": "hqdb2016040815101772",
            "carName": "大众C4L-2016时尚款大众C4L-2016时",
            "user": "张三",
            "idc": "330382198302030023",
            "phone": "13002601637",
            "installment": "1000",
            "periods": "12",
            "downpayment": "30%",
            "status": [
                "征信材料待完善",
                "征信结果待录入",
                "垫资材料待上传",
                "提车待审核",
                "待审核"
            ]
        },
        {
            "date": "2016-10-11",
            "orderNo": "hqdb2016040815101772",
            "carName": "大众C4L-2016时尚款大众C4L-2016时",
            "user": "张三",
            "idc": "330382198302030023",
            "phone": "13002601637",
            "installment": "1000",
            "periods": "12",
            "downpayment": "30%",
            "status": [
                "征信材料待完善",
                "征信结果待录入",
                "垫资材料待上传",
                "提车待审核",
                "待审核"
            ]
        }
	]
}